module gitlab.com/jaxnet/jaxnetd

go 1.17

require (
	github.com/aead/siphash v1.0.1
	github.com/btcsuite/btcd v0.22.0-beta
	github.com/btcsuite/btclog v0.0.0-20170628155309-84c8d2346e9f
	github.com/btcsuite/go-socks v0.0.0-20170105172521-4720035b7bfd
	github.com/btcsuite/goleveldb v1.0.0
	github.com/btcsuite/websocket v0.0.0-20150119174127-31079b680792
	github.com/btcsuite/winsvc v1.0.0
	github.com/davecgh/go-spew v1.1.1
	github.com/gocarina/gocsv v0.0.0-20200827134620-49f5c3fa2b3e
	github.com/jessevdk/go-flags v1.5.0
	github.com/kkdai/bstream v1.0.0
	github.com/kr/pretty v0.2.0 // indirect
	github.com/pelletier/go-toml v1.9.4
	github.com/pkg/errors v0.9.1
	github.com/rs/zerolog v1.25.0
	github.com/stretchr/testify v1.6.1
	github.com/urfave/cli/v2 v2.2.0
	golang.org/x/crypto v0.0.0-20210921155107-089bfa567519
	golang.org/x/net v0.0.0-20210525063256-abc453219eb5 // indirect
	golang.org/x/sync v0.0.0-20210220032951-036812b2e83c
	golang.org/x/sys v0.0.0-20211007075335-d3039528d8ac // indirect
	gopkg.in/check.v1 v1.0.0-20190902080502-41f04d3bba15 // indirect
	gopkg.in/natefinch/lumberjack.v2 v2.0.0
	gopkg.in/yaml.v2 v2.4.0
	gopkg.in/yaml.v3 v3.0.0-20210107192922-496545a6307b
)

require (
	github.com/json-iterator/go v1.1.12
	github.com/mailru/easyjson v0.7.7
	github.com/minio/sha256-simd v1.0.0
)

require (
	github.com/btcsuite/btcutil v1.0.3-0.20201208143702-a53e38424cce // indirect
	github.com/btcsuite/snappy-go v1.0.0 // indirect
	github.com/cpuguy83/go-md2man/v2 v2.0.0-20190314233015-f79a8a8ca69d // indirect
	github.com/josharian/intern v1.0.0 // indirect
	github.com/klauspost/cpuid/v2 v2.0.4 // indirect
	github.com/modern-go/concurrent v0.0.0-20180228061459-e0a39a4cb421 // indirect
	github.com/modern-go/reflect2 v1.0.2 // indirect
	github.com/pmezard/go-difflib v1.0.0 // indirect
	github.com/russross/blackfriday/v2 v2.0.1 // indirect
	github.com/shurcooL/sanitized_anchor_name v1.0.0 // indirect
)
